module github.com/micro/micro/cmd/platform

go 1.14

require (
	github.com/emicklei/proto v1.9.0
	github.com/micro/platform v0.0.0-20200401125201-c5da9d0a54a5
	github.com/mitchellh/go-homedir v1.1.0
	github.com/spf13/cobra v1.0.0
	github.com/spf13/viper v1.6.3
	gitlab.com/diycoder/go-micro v0.0.2
)
